BootLoader
…
Miles D. Williams

3/30/2020

First I open the packages I need to use for data manipulation and visualization.

library(tidyverse) 
library(ggpubr) 

Now I get the data and give it a nice short name (dt)

dt = read_csv('dataviz-01.csv')
dt # look at the data

## # A tibble: 50,000 x 14
##    userid eventType amountDonated timestamp           category gender age  
##    <chr>  <chr>             <dbl> <dttm>              <chr>    <chr>  <chr>
##  1 69f62~ viewedPr~            NA 2019-10-01 00:00:04 sports   M      18-24
##  2 4459d~ viewedPr~            NA 2019-10-01 00:00:22 technol~ M      18-24
##  3 0db9e~ viewedPr~            NA 2019-10-01 00:00:32 environ~ M      55+  
##  4 68195~ viewedPr~            NA 2019-10-01 00:00:38 technol~ M      18-24
##  5 9508a~ viewedPr~            NA 2019-10-01 00:00:51 sports   F      25-34
##  6 d420e~ viewedPr~            NA 2019-10-01 00:01:04 fashion  F      45-54
##  7 0e005~ viewedPr~            NA 2019-10-01 00:02:17 games    F      35-44
##  8 c6f18~ viewedPr~            NA 2019-10-01 00:02:18 technol~ F      35-44
##  9 2eb99~ viewedPr~            NA 2019-10-01 00:02:25 fashion  F      45-54
## 10 e040f~ viewedPr~            NA 2019-10-01 00:02:39 technol~ F      45-54
## # ... with 49,990 more rows, and 7 more variables: maritalStatus <chr>,
## #   device <chr>, city <chr>, state <chr>, latitude <dbl>, longitude <dbl>,
## #   zipCode <dbl>
…
  summarize(
    total = sum(amountDonated),
    mean = mean(amountDonated),
    sd = sd(amountDonated),
    min = min(amountDonated),
    max = max(amountDonated),
    n = n()
  ) %>%
  arrange(-total) %>%
  filter(
    category %in% c('sports','environment','technology')
  ) -> top_funders
top_funders

## # A tibble: 6,618 x 13
## # Groups:   category, gender, age, maritalStatus, device, city [6,591]
##    category gender age   maritalStatus device city  state total  mean    sd
##    <chr>    <chr>  <chr> <chr>         <chr>  <chr> <chr> <dbl> <dbl> <dbl>
##  1 environ~ F      18-24 married       iOS    Atla~ GA     5214  40.4  14.9
##  2 sports   F      18-24 married       iOS    Atla~ GA     4958  39.0  14.8
##  3 technol~ M      18-24 married       iOS    Atla~ GA     4732  40.1  14.7
##  4 sports   M      18-24 married       iOS    Atla~ GA     4578  40.9  15.9
##  5 technol~ F      18-24 married       iOS    Atla~ GA     4076  37.1  14.4
##  6 environ~ M      18-24 married       iOS    Atla~ GA     3346  38.9  16.5
##  7 environ~ F      18-24 married       iOS    Lake~ OR     2605  40.7  16.5
##  8 sports   F      18-24 married       iOS    Lake~ OR     2523  44.3  13.3
##  9 environ~ F      18-24 single        andro~ Atla~ GA     2522  39.4  13.6
## 10 technol~ F      18-24 married       iOS    Lake~ OR     2363  39.4  14.1
## # ... with 6,608 more rows, and 3 more variables: min <dbl>, max <dbl>, n <int>
…
